Introduction to tidyjson
…
amts <- worldbank %>%
  spread_values(
    total = jnumber("totalamt")
  ) %>% 
  enter_object("majorsector_percent") %>% gather_array %>%
  spread_values(
    sector = jstring("Name"),
    pct = jnumber("Percent")
  ) %>%
  mutate(total.m = total / 10^6) %>%
  select(document.id, sector, total.m, pct) %>%
  tbl_df 
amts
#> # A tibble: 1,405 × 4
#>   document.id                                  sector total.m   pct
#> *       <int>                                   <chr>   <dbl> <dbl>
#> 1           1                               Education     130    46
#> 2           1                               Education     130    26
#> 3           1 Public Administration, Law, and Justice     130    16
#> 4           1                               Education     130    12
#> # ... with 1,401 more rows
…
Many are 0, the mean is $80m and the max is over $1bn.

Let’s now aggregate by the sector and compute, on a dollar weighted basis, where the money is going by sector:

amts %>%
  group_by(sector) %>%
  summarize(
    spend.portion = sum(total.m * pct / 100)
  ) %>%
  ungroup %>%
  mutate(spend.dist = spend.portion / sum(spend.portion)) %>%
  arrange(desc(spend.dist))
#> # A tibble: 10 × 3
#>                                    sector spend.portion spend.dist
#>                                     <chr>         <dbl>      <dbl>
#> 1 Public Administration, Law, and Justice      8698.143 0.25477320
#> 2                          Transportation      5878.931 0.17219698
#> 3        Health and other social services      4312.514 0.12631581
#> 4                       Energy and mining      3360.977 0.09844478
#> # ... with 6 more rows

Companies example

Also included in the tidyjson package is a 1000 record sample, companies, which contains a subset of the JSON data describing startups from jsonstudio.

Instead of using jsonlite::prettify, let’s quickly summarize the keys using tidyjson and visualize the results:

library(ggplot2)
key_stats <- companies %>% 
  gather_keys %>% json_types %>% group_by(key, type) %>% tally
key_stats
#> Source: local data frame [64 x 3]
#> Groups: key [?]
#> 
#>            key   type     n
#>          <chr> <fctr> <int>
#> 1          _id object  1000
#> 2  acquisition object   149
#> 3  acquisition   null   851
#> 4 acquisitions  array  1000
#> # ... with 60 more rows
…
