Using Multiple APIs
…
After exploring the structure of the data, we decide we want to look at a high level overview of the isssues we have. Note that we can grab nested object detail by declaring a more complex path like jstring('assignee','login'). This avoids the tendency to use enter_object() where it is not necessary.

highlevel <- dplyr_issues %>% gather_array('index') %>% 
  spread_values(id=jnumber('id')
                , assignee=jstring('assignee','login')
                , comments=jnumber('comments')
                , title=jstring('title')
                , state=jstring('state')
                , number=jnumber('number')
                )

print(highlevel)
#> # A tbl_json: 30 x 8 tibble with a "JSON" attribute
#>   `attr(., "JSON"… document.id index     id assignee comments title state
#>   <chr>                  <int> <int>  <dbl> <chr>       <dbl> <chr> <chr>
#> 1 "{\"url\":\"htt…           1     1 5.29e8 <NA>            0 Rewo… open 
#> 2 "{\"url\":\"htt…           1     2 5.28e8 <NA>            0 Use … open 
#> 3 "{\"url\":\"htt…           1     3 5.27e8 <NA>            0 muta… open 
#> 4 "{\"url\":\"htt…           1     4 5.27e8 <NA>            0 Add … open 
#> # … with 26 more rows, and 1 more variable: number <dbl>
…
