Visualizing JSON schema
…
Even for such a small example its hard to understand the structure from the raw JSON. We can instead use listviewer::jsonedit to view it:

co_examp %>% jsonedit(mode = "code")

Working with many companies

This is great for understanding a single JSON document. But many of the objects are empty arrays, and so give us very little insight into the structure of the collection as a whole.

To start working with the entire collection, lets use the json_structure function in tidyjson which gives us a data.frame where each row corresponds to an object, array or scalar in the JSON document.

co_struct <- companies %>% sample(5) %>% json_structure

print(co_struct)
#> # A tbl_json: 535 x 9 tibble with a "JSON" attribute
#>   `attr(., "JSON" document.id parent.id level index child.id seq   name 
#>   <chr>                  <int> <chr>     <int> <int> <chr>    <lis> <chr>
#> 1 "{\"_id\":{\"$o           1 <NA>          0     1 1        <lis <NA> 
#> 2 "{\"_id\":{\"$o           2 <NA>          0     1 1        <lis <NA> 
#> 3 "{\"_id\":{\"$o           3 <NA>          0     1 1        <lis <NA> 
#> 4 "{\"_id\":{\"$o           4 <NA>          0     1 1        <lis <NA> 
#> #  with 531 more rows, and 2 more variables: type <fct>, length <int>

We can then aggregate all of the object names across the entire collection, excluding null values to count the number of documents with meaningful data under each object name.

co_names <- co_struct %>% 
  filter(type != "null" & !is.na(name)) %>%
  group_by(level, name, type) %>%
  summarize(ndoc = n_distinct(document.id))

co_names
#> # A tibble: 65 x 4
#> # Groups:   level, name [65]
#>   level name         type    ndoc
#>   <int> <chr>        <fct>  <int>
#> 1     1 _id          object     5
#> 2     1 acquisition  object     1
#> 3     1 acquisitions array      5
#> 4     1 alias_list   string     1
#> #  with 61 more rows
…
Now lets use this insight to structure funding and geo data for a visualization.

First, lets get funding round data:

rounds <- companies %>%
  enter_object(funding_rounds) %>%
  gather_array %>%
  spread_values(
    round = jstring(round_code),
    currency = jstring(raised_currency_code),
    raised = jnumber(raised_amount)
  )
rounds %>% head
#> # A tbl_json: 6 x 5 tibble with a "JSON" attribute
#>   `attr(., "JSON")`      document.id array.index round      currency raised
#>   <chr>                        <int>       <int> <chr>      <chr>     <dbl>
#> 1 "{\"id\":6252,\"rou..           1           1 seed       USD      2.00e6
#> 2 "{\"id\":15229,\"ro..           1           2 partial    USD      2.00e5
#> 3 "{\"id\":22565,\"ro..           1           3 debt_round USD      2.61e6
#> 4 "{\"id\":34222,\"ro..           1           4 b          USD      1.50e6
#> #  with 2 more rows

Now, lets get geo data:

geos <- companies %>%
  enter_object(offices) %>%
  gather_array %>%
  spread_values(
    country = jstring(country_code),
    state = jstring(state_code),
    description = jstring(description)
  )
geos %>% head
#> # A tbl_json: 6 x 5 tibble with a "JSON" attribute
#>   `attr(., "JSON")`   document.id array.index country state description    
#>   <chr>                     <int>       <int> <chr>   <chr> <chr>          
#> 1 "{\"description\":           1           1 USA     MA    OutSmart Power
#> 2 "{\"description\":           2           1 CAN     <NA>  ""             
#> 3 "{\"description\":           4           1 PRT     <NA>  Headquarters   
#> 4 "{\"description\":           5           1 USA     MI    Lycera         
#> #  with 2 more rows
…
